module github.com/warmans/prometheus-aggregate-exporter

go 1.20

require (
	github.com/prometheus/client_model v0.0.0-20190129233127-fd36f4220a90
	github.com/prometheus/common v0.2.0
)

require (
	github.com/golang/protobuf v1.2.0 // indirect
	github.com/matttproud/golang_protobuf_extensions v1.0.1 // indirect
	golang.org/x/sync v0.0.0-20181221193216-37e7f081c4d4 // indirect
)